{
  "counters": {
    "petId": 9,
    "orderId": 4,
    "userId":4,
    "sessionId": 1
  },

  "pet": [
    {"id": 1,"category": {"id": 1,"name": "fish"},"name": "fishy","photoUrls": ["string"],"tags": [{"id": 0,"name": "string"}],"status": "available"},
    {"id": 2,"category": {"id": 2,"name": "cats"},"name": "kittie","photoUrls": ["string"],"tags": [{"id": 0,"name": "string"}],"status": "available"},
    {"id": 3,"category": {"id": 3,"name": "dogs"},"name": "doggie","photoUrls": ["string"],"tags": [{"id": 0,"name": "string"}],"status": "available"},
    {"id": 4,"category": {"id": 4,"name": "birds"},"name": "birddie","photoUrls": ["string"],"tags": [{"id": 0,"name": "string"}],"status": "sold"},
    {"id": 5,"category": {"id": 1,"name": "fish"},"name": "fishy-2","photoUrls": ["string"],"tags": [{"id": 0,"name": "string"}],"status": "available"},
    {"id": 6,"category": {"id": 3,"name": "dogs"},"name": "rex","photoUrls": ["string"],"tags": [{"id": 0,"name": "string"}],"status": "available"},
    {"id": 7,"category": {"id": 1,"name": "fish"},"name": "fishy-3","photoUrls": ["string"],"tags": [{"id": 0,"name": "string"}],"status": "sold"},
    {"id": 8,"category": {"id": 2,"name": "cats"},"name": "kitten","photoUrls": ["string"],"tags": [{"id": 0,"name": "string"}],"status": "available"},
    {"id": 9,"category": {"id": 2,"name": "cats"},"name": "meow","photoUrls": ["string"],"tags": [{"id": 0,"name": "string"}],"status": "sold"}
  ],

  "order": [
    {"id": 1, "petId": 1, "quantity": 0, "shipDate": "2021-01-14T04:20:00.333Z", "status": "placed", "complete": true},
    {"id": 2, "petId": 2, "quantity": 0, "shipDate": "2021-04-14T04:20:00.333Z", "status": "placed", "complete": false},
    {"id": 3, "petId": 4, "quantity": 0, "shipDate": "2021-03-14T04:20:00.333Z", "status": "placed", "complete": false},
    {"id": 4, "petId": 2, "quantity": 0, "shipDate": "2021-03-14T04:20:00.333Z", "status": "placed", "complete": true}
  ],

  "user": [
    {"id": 1,"username": "salimo", "firstName": "salimo", "lastName": "salimo", "email": "salimo@mail.com", "password": "lsjdf", "phone": "string", "userStatus": 0},
    {"id": 2,"username": "alfredo", "firstName": "alfredo", "lastName": "salimo", "email": "alfredo@mail.com", "password": "2342f", "phone": "string", "userStatus": 0},
    {"id": 3,"username": "nunes", "firstName": "nunes", "lastName": "salimo", "email": "nunes@mail.com", "password": "he321", "phone": "string", "userStatus": 0},
    {"id": 4,"username": "elsa", "firstName": "elsa", "lastName": "salimo", "email": "elsa@mail.com", "password": "sdft34", "phone": "string", "userStatus": 0}
  ],

  "session": [
    {"id": 1, "username": "salimo"}
  ]
}

